{
    "photos": {
        "page": 1,
        "pages": 100,
        "perpage": 10,
        "total": 1000,
        "photo": [
            {
                "id": "53145680957",
                "owner": "187113622@N05",
                "secret": "a7cb51ce49",
                "server": "65535",
                "farm": 66,
                "title": "RR Media  E: rrphotomedia@gmail.com  W: https:\/\/www.wsimages.com",
                "ispublic": 1,
                "isfriend": 0,
                "isfamily": 0
            },
            {
                "id": "53145681242",
                "owner": "133712283@N03",
                "secret": "aae933bbd1",
                "server": "65535",
                "farm": 66,
                "title": "IMG_9138_DxO_DxO",
                "ispublic": 1,
                "isfriend": 0,
                "isfamily": 0
            },
            {
                "id": "53145681582",
                "owner": "43865627@N03",
                "secret": "ef6e93f1a2",
                "server": "65535",
                "farm": 66,
                "title": "WAIKOLOA PLAZA ADHOC 113 - [August 26, 2023 - DJI_20230826114137_0048_D_OAHU].jpg",
                "ispublic": 1,
                "isfriend": 0,
                "isfamily": 0
            },
            {
                "id": "53146265086",
                "owner": "191823777@N05",
                "secret": "d06509d7ea",
                "server": "65535",
                "farm": 66,
                "title": "2023-08-27_06-38-53",
                "ispublic": 1,
                "isfriend": 0,
                "isfamily": 0
            },
            {
                "id": "53146472199",
                "owner": "88894128@N02",
                "secret": "5bf15280bd",
                "server": "65535",
                "farm": 66,
                "title": "20210818_134844",
                "ispublic": 1,
                "isfriend": 0,
                "isfamily": 0
            },
            {
                "id": "53146472484",
                "owner": "150345183@N06",
                "secret": "1c9d6259a7",
                "server": "65535",
                "farm": 66,
                "title": "zigsa lines",
                "ispublic": 1,
                "isfriend": 0,
                "isfamily": 0
            },
            {
                "id": "53146689520",
                "owner": "198993292@N04",
                "secret": "2844fa291a",
                "server": "65535",
                "farm": 66,
                "title": "Types of Shots",
                "ispublic": 1,
                "isfriend": 0,
                "isfamily": 0
            },
            {
                "id": "53146758103",
                "owner": "198970720@N05",
                "secret": "a5028496a6",
                "server": "65535",
                "farm": 66,
                "title": "",
                "ispublic": 1,
                "isfriend": 0,
                "isfamily": 0
            },
            {
                "id": "53146758378",
                "owner": "193507663@N08",
                "secret": "5e2a416ede",
                "server": "65535",
                "farm": 66,
                "title": "snapshot",
                "ispublic": 1,
                "isfriend": 0,
                "isfamily": 0
            },
            {
                "id": "53146758673",
                "owner": "198679887@N06",
                "secret": "c6e4332fea",
                "server": "65535",
                "farm": 66,
                "title": "",
                "ispublic": 1,
                "isfriend": 0,
                "isfamily": 0
            }
        ]
    },
    "stat": "ok"
}
