{
    "photos": {
        "page": 1,
        "pages": 7938,
        "perpage": 7,
        "total": 79371,
        "photo": [
            {
                "id": "53146740938",
                "owner": "159210083@N04",
                "secret": "0b0b73d559",
                "server": "65535",
                "farm": 66,
                "title": "Paco The Poser",
                "ispublic": 1,
                "isfriend": 0,
                "isfamily": 0
            },
            {
                "id": "53146615853",
                "owner": "199031664@N04",
                "secret": "739a133dec",
                "server": "65535",
                "farm": 66,
                "title": "my cat",
                "ispublic": 1,
                "isfriend": 0,
                "isfamily": 0
            },  
            {
                "id": "53146600563",
                "owner": "199058745@N08",
                "secret": "ff4136e45d",
                "server": "65535",
                "farm": 66,
                "title": "A1 Self portrait",
                "ispublic": 1,
                "isfriend": 0,
                "isfamily": 0
            },
            {
                "id": "53146086151",
                "owner": "163245378@N08",
                "secret": "7fa52ec744",
                "server": "65535",
                "farm": 66,
                "title": "",
                "ispublic": 1,
                "isfriend": 0,
                "isfamily": 0
            },
            {
                "id": "53146161269",
                "owner": "198993385@N04",
                "secret": "e356ae8ed4",
                "server": "65535",
                "farm": 66,
                "title": "ginger cat",
                "ispublic": 1,
                "isfriend": 0,
                "isfamily": 0
            },
            {
                "id": "53146358528",
                "owner": "48889060482@N01",
                "secret": "c5a1e8a5e6",
                "server": "65535",
                "farm": 66,
                "title": "IMG_5625",
                "ispublic": 1,
                "isfriend": 0,
                "isfamily": 0
            },
            {
                "id": "53146076939",
                "owner": "48889060482@N01",
                "secret": "66718305c8",
                "server": "65535",
                "farm": 66,
                "title": "IMG_5629",
                "ispublic": 1,
                "isfriend": 0,
                "isfamily": 0
            }
        ]
    },
    "stat": "ok"
}
