{
    "photos": {
        "page": 1,
        "pages": 14,
        "perpage": 10,
        "total": 139,
        "photo": [
            {
                "id": "53143824974",
                "owner": "197340444@N07",
                "secret": "2b532c4403",
                "server": "65535",
                "farm": 66,
                "title": "",
                "ispublic": 1,
                "isfriend": 0,
                "isfamily": 0
            },
            {
                "id": "53144100913",
                "owner": "197340444@N07",
                "secret": "745729c26d",
                "server": "65535",
                "farm": 66,
                "title": "",
                "ispublic": 1,
                "isfriend": 0,
                "isfamily": 0
            },
            {
                "id": "53143027092",
                "owner": "197340444@N07",
                "secret": "5bda163b5a",
                "server": "65535",
                "farm": 66,
                "title": "",
                "ispublic": 1,
                "isfriend": 0,
                "isfamily": 0
            },
            {
                "id": "53143824384",
                "owner": "197340444@N07",
                "secret": "3523ecbf3d",
                "server": "65535",
                "farm": 66,
                "title": "",
                "ispublic": 1,
                "isfriend": 0,
                "isfamily": 0
            },
            {
                "id": "53143824374",
                "owner": "197340444@N07",
                "secret": "5c4d275c35",
                "server": "65535",
                "farm": 66,
                "title": "",
                "ispublic": 1,
                "isfriend": 0,
                "isfamily": 0
            },
            {
                "id": "53143615631",
                "owner": "197340444@N07",
                "secret": "3f5da54a4a",
                "server": "65535",
                "farm": 66,
                "title": "",
                "ispublic": 1,
                "isfriend": 0,
                "isfamily": 0
            },
            {
                "id": "53140213971",
                "owner": "197340444@N07",
                "secret": "363f5c61c0",
                "server": "65535",
                "farm": 66,
                "title": "\ufe0f\ufe0f\ufe0f\ufe0f",
                "ispublic": 1,
                "isfriend": 0,
                "isfamily": 0
            },
            {
                "id": "53139619237",
                "owner": "197340444@N07",
                "secret": "7bf5739505",
                "server": "65535",
                "farm": 66,
                "title": "\ufe0f\ufe0f\ufe0f\ufe0f",
                "ispublic": 1,
                "isfriend": 0,
                "isfamily": 0
            },
            {
                "id": "53137284111",
                "owner": "197340444@N07",
                "secret": "a86fe93dfa",
                "server": "65535",
                "farm": 66,
                "title": "Shawty too fire w\/ The bubble butt \ud83d\udd25",
                "ispublic": 1,
                "isfriend": 0,
                "isfamily": 0
            },
            {
                "id": "53136686267",
                "owner": "197340444@N07",
                "secret": "e3ff7ef3bc",
                "server": "65535",
                "farm": 66,
                "title": "Shawty too fire w\/ The bubble butt \ud83d\udd25",
                "ispublic": 1,
                "isfriend": 0,
                "isfamily": 0
            }
        ]
    },
    "stat": "ok"
}
